<svg xmlns="http://www.w3.org/2000/svg" viewBox="0 0 16 16">
  <title>Монтажная область 1</title>
  <g>
    <rect width="16" height="16" rx="2" ry="2" fill="#ff9a00"/>
    <g style="isolation: isolate">
      <g style="isolation: isolate">
        <path d="M7.57,11.5a.6.6,0,0,1,1-.41.58.58,0,0,1,.15.41.62.62,0,0,1-1,.4A.56.56,0,0,1,7.57,11.5Zm1-1.72h-.9L7.6,4.18h1Z" fill="#fff"/>
      </g>
    </g>
  </g>
</svg>
