<svg xmlns="http://www.w3.org/2000/svg" width="46" height="46" viewBox="0 0 46 46">
  <path fill="#fff" d="M513.036,688V675.934h-4.33v-4.826h4.33v-2.942c0-3.992,2.207-6.165,5.408-6.165,1.532,0,2.168.127,3.25,0.184v4.1h-2.673c-1.74,0-1.656,1-1.656,2.345v2.481h3.729l-0.54,4.826h-3.189V688h-4.329Z" transform="translate(-492.203 -652)"/>
</svg>
